<svg width="609" height="150" viewBox="0 0 609 150" fill="none" xmlns="http://www.w3.org/2000/svg">
<circle cx="75" cy="75" r="75" fill="#141414"/>
<path d="M186.44 50.06V71H182.24V62.09H173.27V71H169.07V50.06H173.27V58.67H182.24V50.06H186.44ZM201.374 71L196.754 62.84H194.774V71H190.574V50.06H198.434C200.054 50.06 201.434 50.35 202.574 50.93C203.714 51.49 204.564 52.26 205.124 53.24C205.704 54.2 205.994 55.28 205.994 56.48C205.994 57.86 205.594 59.11 204.794 60.23C203.994 61.33 202.804 62.09 201.224 62.51L206.234 71H201.374ZM194.774 59.69H198.284C199.424 59.69 200.274 59.42 200.834 58.88C201.394 58.32 201.674 57.55 201.674 56.57C201.674 55.61 201.394 54.87 200.834 54.35C200.274 53.81 199.424 53.54 198.284 53.54H194.774V59.69ZM224.171 71.21C222.711 71.21 221.391 70.96 220.211 70.46C219.051 69.96 218.131 69.24 217.451 68.3C216.771 67.36 216.421 66.25 216.401 64.97H220.901C220.961 65.83 221.261 66.51 221.801 67.01C222.361 67.51 223.121 67.76 224.081 67.76C225.061 67.76 225.831 67.53 226.391 67.07C226.951 66.59 227.231 65.97 227.231 65.21C227.231 64.59 227.041 64.08 226.661 63.68C226.281 63.28 225.801 62.97 225.221 62.75C224.661 62.51 223.881 62.25 222.881 61.97C221.521 61.57 220.411 61.18 219.551 60.8C218.711 60.4 217.981 59.81 217.361 59.03C216.761 58.23 216.461 57.17 216.461 55.85C216.461 54.61 216.771 53.53 217.391 52.61C218.011 51.69 218.881 50.99 220.001 50.51C221.121 50.01 222.401 49.76 223.841 49.76C226.001 49.76 227.751 50.29 229.091 51.35C230.451 52.39 231.201 53.85 231.341 55.73H226.721C226.681 55.01 226.371 54.42 225.791 53.96C225.231 53.48 224.481 53.24 223.541 53.24C222.721 53.24 222.061 53.45 221.561 53.87C221.081 54.29 220.841 54.9 220.841 55.7C220.841 56.26 221.021 56.73 221.381 57.11C221.761 57.47 222.221 57.77 222.761 58.01C223.321 58.23 224.101 58.49 225.101 58.79C226.461 59.19 227.571 59.59 228.431 59.99C229.291 60.39 230.031 60.99 230.651 61.79C231.271 62.59 231.581 63.64 231.581 64.94C231.581 66.06 231.291 67.1 230.711 68.06C230.131 69.02 229.281 69.79 228.161 70.37C227.041 70.93 225.711 71.21 224.171 71.21ZM240.112 57.83V65.87C240.112 66.43 240.242 66.84 240.502 67.1C240.782 67.34 241.242 67.46 241.882 67.46H243.832V71H241.192C237.652 71 235.882 69.28 235.882 65.84V57.83H233.902V54.38H235.882V50.27H240.112V54.38H243.832V57.83H240.112ZM245.773 62.63C245.773 60.95 246.103 59.46 246.763 58.16C247.443 56.86 248.353 55.86 249.493 55.16C250.653 54.46 251.943 54.11 253.363 54.11C254.603 54.11 255.683 54.36 256.603 54.86C257.543 55.36 258.293 55.99 258.853 56.75V54.38H263.083V71H258.853V68.57C258.313 69.35 257.563 70 256.603 70.52C255.663 71.02 254.573 71.27 253.333 71.27C251.933 71.27 250.653 70.91 249.493 70.19C248.353 69.47 247.443 68.46 246.763 67.16C246.103 65.84 245.773 64.33 245.773 62.63ZM258.853 62.69C258.853 61.67 258.653 60.8 258.253 60.08C257.853 59.34 257.313 58.78 256.633 58.4C255.953 58 255.223 57.8 254.443 57.8C253.663 57.8 252.943 57.99 252.283 58.37C251.623 58.75 251.083 59.31 250.663 60.05C250.263 60.77 250.063 61.63 250.063 62.63C250.063 63.63 250.263 64.51 250.663 65.27C251.083 66.01 251.623 66.58 252.283 66.98C252.963 67.38 253.683 67.58 254.443 67.58C255.223 67.58 255.953 67.39 256.633 67.01C257.313 66.61 257.853 66.05 258.253 65.33C258.653 64.59 258.853 63.71 258.853 62.69ZM271.385 56.96C271.925 56.08 272.625 55.39 273.485 54.89C274.365 54.39 275.365 54.14 276.485 54.14V58.55H275.375C274.055 58.55 273.055 58.86 272.375 59.48C271.715 60.1 271.385 61.18 271.385 62.72V71H267.185V54.38H271.385V56.96ZM284.204 57.83V65.87C284.204 66.43 284.334 66.84 284.594 67.1C284.874 67.34 285.334 67.46 285.974 67.46H287.924V71H285.284C281.744 71 279.974 69.28 279.974 65.84V57.83H277.994V54.38H279.974V50.27H284.204V54.38H287.924V57.83H284.204ZM306.635 54.38V71H302.405V68.9C301.865 69.62 301.155 70.19 300.275 70.61C299.415 71.01 298.475 71.21 297.455 71.21C296.155 71.21 295.005 70.94 294.005 70.4C293.005 69.84 292.215 69.03 291.635 67.97C291.075 66.89 290.795 65.61 290.795 64.13V54.38H294.995V63.53C294.995 64.85 295.325 65.87 295.985 66.59C296.645 67.29 297.545 67.64 298.685 67.64C299.845 67.64 300.755 67.29 301.415 66.59C302.075 65.87 302.405 64.85 302.405 63.53V54.38H306.635ZM314.979 56.78C315.519 56.02 316.259 55.39 317.199 54.89C318.159 54.37 319.249 54.11 320.469 54.11C321.889 54.11 323.169 54.46 324.309 55.16C325.469 55.86 326.379 56.86 327.039 58.16C327.719 59.44 328.059 60.93 328.059 62.63C328.059 64.33 327.719 65.84 327.039 67.16C326.379 68.46 325.469 69.47 324.309 70.19C323.169 70.91 321.889 71.27 320.469 71.27C319.249 71.27 318.169 71.02 317.229 70.52C316.309 70.02 315.559 69.39 314.979 68.63V78.92H310.779V54.38H314.979V56.78ZM323.769 62.63C323.769 61.63 323.559 60.77 323.139 60.05C322.739 59.31 322.199 58.75 321.519 58.37C320.859 57.99 320.139 57.8 319.359 57.8C318.599 57.8 317.879 58 317.199 58.4C316.539 58.78 315.999 59.34 315.579 60.08C315.179 60.82 314.979 61.69 314.979 62.69C314.979 63.69 315.179 64.56 315.579 65.3C315.999 66.04 316.539 66.61 317.199 67.01C317.879 67.39 318.599 67.58 319.359 67.58C320.139 67.58 320.859 67.38 321.519 66.98C322.199 66.58 322.739 66.01 323.139 65.27C323.559 64.53 323.769 63.65 323.769 62.63ZM351.099 67.01H342.759L341.379 71H336.969L344.499 50.03H349.389L356.919 71H352.479L351.099 67.01ZM349.959 63.65L346.929 54.89L343.899 63.65H349.959ZM358.654 62.69C358.654 60.97 359.004 59.47 359.704 58.19C360.404 56.89 361.374 55.89 362.614 55.19C363.854 54.47 365.274 54.11 366.874 54.11C368.934 54.11 370.634 54.63 371.974 55.67C373.334 56.69 374.244 58.13 374.704 59.99H370.174C369.934 59.27 369.524 58.71 368.944 58.31C368.384 57.89 367.684 57.68 366.844 57.68C365.644 57.68 364.694 58.12 363.994 59C363.294 59.86 362.944 61.09 362.944 62.69C362.944 64.27 363.294 65.5 363.994 66.38C364.694 67.24 365.644 67.67 366.844 67.67C368.544 67.67 369.654 66.91 370.174 65.39H374.704C374.244 67.19 373.334 68.62 371.974 69.68C370.614 70.74 368.914 71.27 366.874 71.27C365.274 71.27 363.854 70.92 362.614 70.22C361.374 69.5 360.404 68.5 359.704 67.22C359.004 65.92 358.654 64.41 358.654 62.69ZM376.701 62.63C376.701 60.95 377.031 59.46 377.691 58.16C378.371 56.86 379.281 55.86 380.421 55.16C381.581 54.46 382.871 54.11 384.291 54.11C385.531 54.11 386.611 54.36 387.531 54.86C388.471 55.36 389.221 55.99 389.781 56.75V54.38H394.011V71H389.781V68.57C389.241 69.35 388.491 70 387.531 70.52C386.591 71.02 385.501 71.27 384.261 71.27C382.861 71.27 381.581 70.91 380.421 70.19C379.281 69.47 378.371 68.46 377.691 67.16C377.031 65.84 376.701 64.33 376.701 62.63ZM389.781 62.69C389.781 61.67 389.581 60.8 389.181 60.08C388.781 59.34 388.241 58.78 387.561 58.4C386.881 58 386.151 57.8 385.371 57.8C384.591 57.8 383.871 57.99 383.211 58.37C382.551 58.75 382.011 59.31 381.591 60.05C381.191 60.77 380.991 61.63 380.991 62.63C380.991 63.63 381.191 64.51 381.591 65.27C382.011 66.01 382.551 66.58 383.211 66.98C383.891 67.38 384.611 67.58 385.371 67.58C386.151 67.58 386.881 67.39 387.561 67.01C388.241 66.61 388.781 66.05 389.181 65.33C389.581 64.59 389.781 63.71 389.781 62.69ZM397.033 62.63C397.033 60.95 397.363 59.46 398.023 58.16C398.703 56.86 399.623 55.86 400.783 55.16C401.943 54.46 403.233 54.11 404.653 54.11C405.733 54.11 406.763 54.35 407.743 54.83C408.723 55.29 409.503 55.91 410.083 56.69V48.8H414.343V71H410.083V68.54C409.563 69.36 408.833 70.02 407.893 70.52C406.953 71.02 405.863 71.27 404.623 71.27C403.223 71.27 401.943 70.91 400.783 70.19C399.623 69.47 398.703 68.46 398.023 67.16C397.363 65.84 397.033 64.33 397.033 62.63ZM410.113 62.69C410.113 61.67 409.913 60.8 409.513 60.08C409.113 59.34 408.573 58.78 407.893 58.4C407.213 58 406.483 57.8 405.703 57.8C404.923 57.8 404.203 57.99 403.543 58.37C402.883 58.75 402.343 59.31 401.923 60.05C401.523 60.77 401.323 61.63 401.323 62.63C401.323 63.63 401.523 64.51 401.923 65.27C402.343 66.01 402.883 66.58 403.543 66.98C404.223 67.38 404.943 67.58 405.703 67.58C406.483 67.58 407.213 67.39 407.893 67.01C408.573 66.61 409.113 66.05 409.513 65.33C409.913 64.59 410.113 63.71 410.113 62.69ZM433.895 62.33C433.895 62.93 433.855 63.47 433.775 63.95H421.625C421.725 65.15 422.145 66.09 422.885 66.77C423.625 67.45 424.535 67.79 425.615 67.79C427.175 67.79 428.285 67.12 428.945 65.78H433.475C432.995 67.38 432.075 68.7 430.715 69.74C429.355 70.76 427.685 71.27 425.705 71.27C424.105 71.27 422.665 70.92 421.385 70.22C420.125 69.5 419.135 68.49 418.415 67.19C417.715 65.89 417.365 64.39 417.365 62.69C417.365 60.97 417.715 59.46 418.415 58.16C419.115 56.86 420.095 55.86 421.355 55.16C422.615 54.46 424.065 54.11 425.705 54.11C427.285 54.11 428.695 54.45 429.935 55.13C431.195 55.81 432.165 56.78 432.845 58.04C433.545 59.28 433.895 60.71 433.895 62.33ZM429.545 61.13C429.525 60.05 429.135 59.19 428.375 58.55C427.615 57.89 426.685 57.56 425.585 57.56C424.545 57.56 423.665 57.88 422.945 58.52C422.245 59.14 421.815 60.01 421.655 61.13H429.545ZM457.601 54.14C459.641 54.14 461.281 54.77 462.521 56.03C463.781 57.27 464.411 59.01 464.411 61.25V71H460.211V61.82C460.211 60.52 459.881 59.53 459.221 58.85C458.561 58.15 457.661 57.8 456.521 57.8C455.381 57.8 454.471 58.15 453.791 58.85C453.131 59.53 452.801 60.52 452.801 61.82V71H448.601V61.82C448.601 60.52 448.271 59.53 447.611 58.85C446.951 58.15 446.051 57.8 444.911 57.8C443.751 57.8 442.831 58.15 442.151 58.85C441.491 59.53 441.161 60.52 441.161 61.82V71H436.961V54.38H441.161V56.39C441.701 55.69 442.391 55.14 443.231 54.74C444.091 54.34 445.031 54.14 446.051 54.14C447.351 54.14 448.511 54.42 449.531 54.98C450.551 55.52 451.341 56.3 451.901 57.32C452.441 56.36 453.221 55.59 454.241 55.01C455.281 54.43 456.401 54.14 457.601 54.14ZM484.296 54.38L474.006 78.86H469.536L473.136 70.58L466.476 54.38H471.186L475.476 65.99L479.826 54.38H484.296ZM168.05 105.5C168.05 103.44 168.51 101.6 169.43 99.98C170.37 98.34 171.64 97.07 173.24 96.17C174.86 95.25 176.67 94.79 178.67 94.79C181.01 94.79 183.06 95.39 184.82 96.59C186.58 97.79 187.81 99.45 188.51 101.57H183.68C183.2 100.57 182.52 99.82 181.64 99.32C180.78 98.82 179.78 98.57 178.64 98.57C177.42 98.57 176.33 98.86 175.37 99.44C174.43 100 173.69 100.8 173.15 101.84C172.63 102.88 172.37 104.1 172.37 105.5C172.37 106.88 172.63 108.1 173.15 109.16C173.69 110.2 174.43 111.01 175.37 111.59C176.33 112.15 177.42 112.43 178.64 112.43C179.78 112.43 180.78 112.18 181.64 111.68C182.52 111.16 183.2 110.4 183.68 109.4H188.51C187.81 111.54 186.58 113.21 184.82 114.41C183.08 115.59 181.03 116.18 178.67 116.18C176.67 116.18 174.86 115.73 173.24 114.83C171.64 113.91 170.37 112.64 169.43 111.02C168.51 109.4 168.05 107.56 168.05 105.5ZM199.477 116.27C197.877 116.27 196.437 115.92 195.157 115.22C193.877 114.5 192.867 113.49 192.127 112.19C191.407 110.89 191.047 109.39 191.047 107.69C191.047 105.99 191.417 104.49 192.157 103.19C192.917 101.89 193.947 100.89 195.247 100.19C196.547 99.47 197.997 99.11 199.597 99.11C201.197 99.11 202.647 99.47 203.947 100.19C205.247 100.89 206.267 101.89 207.007 103.19C207.767 104.49 208.147 105.99 208.147 107.69C208.147 109.39 207.757 110.89 206.977 112.19C206.217 113.49 205.177 114.5 203.857 115.22C202.557 115.92 201.097 116.27 199.477 116.27ZM199.477 112.61C200.237 112.61 200.947 112.43 201.607 112.07C202.287 111.69 202.827 111.13 203.227 110.39C203.627 109.65 203.827 108.75 203.827 107.69C203.827 106.11 203.407 104.9 202.567 104.06C201.747 103.2 200.737 102.77 199.537 102.77C198.337 102.77 197.327 103.2 196.507 104.06C195.707 104.9 195.307 106.11 195.307 107.69C195.307 109.27 195.697 110.49 196.477 111.35C197.277 112.19 198.277 112.61 199.477 112.61ZM231.868 99.14C233.908 99.14 235.548 99.77 236.788 101.03C238.048 102.27 238.678 104.01 238.678 106.25V116H234.478V106.82C234.478 105.52 234.148 104.53 233.488 103.85C232.828 103.15 231.928 102.8 230.788 102.8C229.648 102.8 228.738 103.15 228.058 103.85C227.398 104.53 227.068 105.52 227.068 106.82V116H222.868V106.82C222.868 105.52 222.538 104.53 221.878 103.85C221.218 103.15 220.318 102.8 219.178 102.8C218.018 102.8 217.098 103.15 216.418 103.85C215.758 104.53 215.428 105.52 215.428 106.82V116H211.228V99.38H215.428V101.39C215.968 100.69 216.658 100.14 217.498 99.74C218.358 99.34 219.298 99.14 220.318 99.14C221.618 99.14 222.778 99.42 223.798 99.98C224.818 100.52 225.608 101.3 226.168 102.32C226.708 101.36 227.488 100.59 228.508 100.01C229.548 99.43 230.668 99.14 231.868 99.14ZM246.864 101.78C247.404 101.02 248.144 100.39 249.084 99.89C250.044 99.37 251.134 99.11 252.354 99.11C253.774 99.11 255.054 99.46 256.194 100.16C257.354 100.86 258.264 101.86 258.924 103.16C259.604 104.44 259.944 105.93 259.944 107.63C259.944 109.33 259.604 110.84 258.924 112.16C258.264 113.46 257.354 114.47 256.194 115.19C255.054 115.91 253.774 116.27 252.354 116.27C251.134 116.27 250.054 116.02 249.114 115.52C248.194 115.02 247.444 114.39 246.864 113.63V123.92H242.664V99.38H246.864V101.78ZM255.654 107.63C255.654 106.63 255.444 105.77 255.024 105.05C254.624 104.31 254.084 103.75 253.404 103.37C252.744 102.99 252.024 102.8 251.244 102.8C250.484 102.8 249.764 103 249.084 103.4C248.424 103.78 247.884 104.34 247.464 105.08C247.064 105.82 246.864 106.69 246.864 107.69C246.864 108.69 247.064 109.56 247.464 110.3C247.884 111.04 248.424 111.61 249.084 112.01C249.764 112.39 250.484 112.58 251.244 112.58C252.024 112.58 252.744 112.38 253.404 111.98C254.084 111.58 254.624 111.01 255.024 110.27C255.444 109.53 255.654 108.65 255.654 107.63ZM270.616 102.83H267.706V116H263.446V102.83H261.556V99.38H263.446V98.54C263.446 96.5 264.026 95 265.186 94.04C266.346 93.08 268.096 92.63 270.436 92.69V96.23C269.416 96.21 268.706 96.38 268.306 96.74C267.906 97.1 267.706 97.75 267.706 98.69V99.38H270.616V102.83ZM288.788 107.33C288.788 107.93 288.748 108.47 288.668 108.95H276.518C276.618 110.15 277.038 111.09 277.778 111.77C278.518 112.45 279.428 112.79 280.508 112.79C282.068 112.79 283.178 112.12 283.838 110.78H288.368C287.888 112.38 286.968 113.7 285.608 114.74C284.248 115.76 282.578 116.27 280.598 116.27C278.998 116.27 277.558 115.92 276.278 115.22C275.018 114.5 274.028 113.49 273.308 112.19C272.608 110.89 272.258 109.39 272.258 107.69C272.258 105.97 272.608 104.46 273.308 103.16C274.008 101.86 274.988 100.86 276.248 100.16C277.508 99.46 278.958 99.11 280.598 99.11C282.178 99.11 283.588 99.45 284.828 100.13C286.088 100.81 287.058 101.78 287.738 103.04C288.438 104.28 288.788 105.71 288.788 107.33ZM284.438 106.13C284.418 105.05 284.028 104.19 283.268 103.55C282.508 102.89 281.578 102.56 280.478 102.56C279.438 102.56 278.558 102.88 277.838 103.52C277.138 104.14 276.708 105.01 276.548 106.13H284.438ZM298.213 116.27C296.853 116.27 295.633 116.03 294.553 115.55C293.473 115.05 292.613 114.38 291.973 113.54C291.353 112.7 291.013 111.77 290.953 110.75H295.183C295.263 111.39 295.573 111.92 296.113 112.34C296.673 112.76 297.363 112.97 298.183 112.97C298.983 112.97 299.603 112.81 300.043 112.49C300.503 112.17 300.733 111.76 300.733 111.26C300.733 110.72 300.453 110.32 299.893 110.06C299.353 109.78 298.483 109.48 297.283 109.16C296.043 108.86 295.023 108.55 294.223 108.23C293.443 107.91 292.763 107.42 292.183 106.76C291.623 106.1 291.343 105.21 291.343 104.09C291.343 103.17 291.603 102.33 292.123 101.57C292.663 100.81 293.423 100.21 294.403 99.77C295.403 99.33 296.573 99.11 297.913 99.11C299.893 99.11 301.473 99.61 302.653 100.61C303.833 101.59 304.483 102.92 304.603 104.6H300.583C300.523 103.94 300.243 103.42 299.743 103.04C299.263 102.64 298.613 102.44 297.793 102.44C297.033 102.44 296.443 102.58 296.023 102.86C295.623 103.14 295.423 103.53 295.423 104.03C295.423 104.59 295.703 105.02 296.263 105.32C296.823 105.6 297.693 105.89 298.873 106.19C300.073 106.49 301.063 106.8 301.843 107.12C302.623 107.44 303.293 107.94 303.853 108.62C304.433 109.28 304.733 110.16 304.753 111.26C304.753 112.22 304.483 113.08 303.943 113.84C303.423 114.6 302.663 115.2 301.663 115.64C300.683 116.06 299.533 116.27 298.213 116.27ZM313.091 102.83V110.87C313.091 111.43 313.221 111.84 313.481 112.1C313.761 112.34 314.221 112.46 314.861 112.46H316.811V116H314.171C310.631 116 308.861 114.28 308.861 110.84V102.83H306.881V99.38H308.861V95.27H313.091V99.38H316.811V102.83H313.091Z" fill="#141414"/>
<path d="M79.7435 30C80.8045 30.0674 81.8665 30.1177 82.9263 30.2034C91.8632 30.9259 99.5774 34.4721 106.137 40.6772C111.405 45.66 115.214 51.5964 117.126 58.6857C119.714 68.2808 119.608 77.803 115.48 86.9549C110.698 97.5594 103.072 105.25 92.221 109.351C87.7893 111.025 83.1835 111.764 78.4496 111.678C75.5375 111.626 72.6683 111.27 69.8476 110.535C69.5296 110.452 69.3448 110.54 69.1066 110.74C67.7991 111.838 66.4683 112.905 65.1535 113.992C64.6844 114.38 64.2688 114.381 63.7327 114.054C58.8759 111.101 54.4316 107.604 50.3536 103.614C45.3249 98.693 41.1178 93.1193 37.6012 86.9914C37.4144 86.6671 37.4721 86.4273 37.6642 86.1661C38.7555 84.6867 39.8301 83.1936 40.9499 81.7356C41.2479 81.3472 41.3434 81.0293 41.2206 80.5336C40.2908 76.7894 40.0327 72.9745 40.2142 69.1286C40.4482 64.1887 41.5039 59.434 43.4286 54.889C45.4267 50.1728 48.2306 46.0196 51.7493 42.3417C55.8379 38.0687 60.535 34.7483 66.0213 32.6353C70.1236 31.0554 74.3673 30.1766 78.757 30.0599C78.8767 30.0567 78.9953 30.0203 79.1139 30C79.3237 30 79.5337 30 79.7435 30ZM112.233 71.0391C112.23 67.8976 111.8 64.895 111.02 61.9354C106.719 45.6182 90.8956 34.2784 73.6097 37.39C68.6386 38.2849 63.9572 40.0586 59.9966 43.2869C49.5404 51.8115 45.2451 62.8934 47.2747 76.4265C48.3933 83.8861 51.6801 90.2496 57.0625 95.4187C65.6057 103.622 75.679 106.483 87.1408 103.953C93.3974 102.572 98.7662 99.4615 103.162 94.6736C109.288 88.005 112.143 80.0337 112.233 71.0391Z" fill="white"/>
<path d="M30.0011 97.2211C31.2005 95.3554 32.5301 93.5977 34.0906 92.0284C34.6153 91.5008 34.6783 91.5147 35.1117 92.1334C41.0902 100.663 48.0289 108.233 56.4526 114.315C56.8209 114.581 57.1955 114.838 57.6521 115.157C57.1064 115.724 56.6331 116.291 56.0843 116.769C54.9035 117.798 53.6841 118.781 52.4825 119.785C52.1772 120.041 51.8928 120.079 51.5381 119.84C49.9073 118.739 48.2366 117.698 46.6363 116.555C46.0046 116.103 45.4211 116.18 44.7579 116.282C42.0861 116.694 39.7448 115.877 37.6912 114.166C35.7214 112.523 34.2533 110.521 33.7412 107.915C33.4883 106.629 33.4799 105.333 33.7412 104.039C33.7831 103.831 33.7716 103.552 33.6656 103.382C32.4567 101.427 31.2257 99.4871 30 97.5422C30.001 97.4351 30.0011 97.328 30.0011 97.2211Z" fill="white"/>
<path d="M106.525 71.9597C106.492 77.3436 104.992 82.2976 102.308 86.8809C101.039 89.0463 99.0314 90.0194 96.5811 89.7968C94.1107 89.5719 92.4044 88.1912 91.3759 85.8791C90.889 84.7841 90.4 83.6453 89.6842 82.7075C86.7617 78.8808 81.607 77.7634 77.3043 79.9266C76.1311 80.5163 75.004 81.2239 73.7867 81.695C66.6003 84.4747 58.4726 81.362 54.9068 74.4226C52.2213 69.1968 52.2875 63.9146 54.996 58.7037C58.4119 52.1316 63.4762 47.4903 70.417 45.0091C79.8513 41.6362 90.9624 44.1784 98.046 51.3608C102.858 56.2397 105.576 62.1205 106.309 68.9763C106.415 69.9676 106.455 70.9652 106.525 71.9597Z" fill="white"/>
<path d="M87.6244 97.1611C84.3691 97.0274 81.7225 95.7652 79.8334 93.0636C78.7126 91.4612 78.0631 89.6983 78.5427 87.6881C79.0601 85.5183 80.8756 83.9556 83.0563 83.7576C85.1058 83.5713 87.1751 84.8601 88.0336 86.8853C88.4796 87.9384 88.9098 89.0003 89.9005 89.6565C90.2909 89.9145 90.7149 90.1499 91.1545 90.2923C92.4076 90.6959 93.2208 91.6207 93.3742 92.9138C93.5325 94.2496 92.9554 95.5823 91.7549 96.1121C90.7128 96.5723 89.5711 96.8025 88.466 97.1044C88.1858 97.1825 87.8762 97.1472 87.6244 97.1611Z" fill="white"/>
</svg>
