<svg width="300" height="415" viewBox="0 0 300 415" fill="none" xmlns="http://www.w3.org/2000/svg">
<circle cx="150" cy="150" r="150" fill="#EAE41E"/>
<path d="M58.0057 347.26C59.1857 347.48 60.1557 348.07 60.9157 349.03C61.6757 349.99 62.0557 351.09 62.0557 352.33C62.0557 353.45 61.7757 354.44 61.2157 355.3C60.6757 356.14 59.8857 356.8 58.8457 357.28C57.8057 357.76 56.5757 358 55.1557 358H46.1257V337.06H54.7657C56.1857 337.06 57.4057 337.29 58.4257 337.75C59.4657 338.21 60.2457 338.85 60.7657 339.67C61.3057 340.49 61.5757 341.42 61.5757 342.46C61.5757 343.68 61.2457 344.7 60.5857 345.52C59.9457 346.34 59.0857 346.92 58.0057 347.26ZM50.3257 345.7H54.1657C55.1657 345.7 55.9357 345.48 56.4757 345.04C57.0157 344.58 57.2857 343.93 57.2857 343.09C57.2857 342.25 57.0157 341.6 56.4757 341.14C55.9357 340.68 55.1657 340.45 54.1657 340.45H50.3257V345.7ZM54.5557 354.58C55.5757 354.58 56.3657 354.34 56.9257 353.86C57.5057 353.38 57.7957 352.7 57.7957 351.82C57.7957 350.92 57.4957 350.22 56.8957 349.72C56.2957 349.2 55.4857 348.94 54.4657 348.94H50.3257V354.58H54.5557ZM80.853 349.33C80.853 349.93 80.813 350.47 80.733 350.95H68.583C68.683 352.15 69.103 353.09 69.843 353.77C70.583 354.45 71.493 354.79 72.573 354.79C74.133 354.79 75.243 354.12 75.903 352.78H80.433C79.953 354.38 79.033 355.7 77.673 356.74C76.313 357.76 74.643 358.27 72.663 358.27C71.063 358.27 69.623 357.92 68.343 357.22C67.083 356.5 66.093 355.49 65.373 354.19C64.673 352.89 64.323 351.39 64.323 349.69C64.323 347.97 64.673 346.46 65.373 345.16C66.073 343.86 67.053 342.86 68.313 342.16C69.573 341.46 71.023 341.11 72.663 341.11C74.243 341.11 75.653 341.45 76.893 342.13C78.153 342.81 79.123 343.78 79.803 345.04C80.503 346.28 80.853 347.71 80.853 349.33ZM76.503 348.13C76.483 347.05 76.093 346.19 75.333 345.55C74.573 344.89 73.643 344.56 72.543 344.56C71.503 344.56 70.623 344.88 69.903 345.52C69.203 346.14 68.773 347.01 68.613 348.13H76.503ZM88.1186 335.8V358H83.9186V335.8H88.1186ZM91.1882 349.63C91.1882 347.95 91.5182 346.46 92.1782 345.16C92.8582 343.86 93.7682 342.86 94.9082 342.16C96.0682 341.46 97.3582 341.11 98.7782 341.11C100.018 341.11 101.098 341.36 102.018 341.86C102.958 342.36 103.708 342.99 104.268 343.75V341.38H108.498V358H104.268V355.57C103.728 356.35 102.978 357 102.018 357.52C101.078 358.02 99.9882 358.27 98.7482 358.27C97.3482 358.27 96.0682 357.91 94.9082 357.19C93.7682 356.47 92.8582 355.46 92.1782 354.16C91.5182 352.84 91.1882 351.33 91.1882 349.63ZM104.268 349.69C104.268 348.67 104.068 347.8 103.668 347.08C103.268 346.34 102.728 345.78 102.048 345.4C101.368 345 100.638 344.8 99.8582 344.8C99.0782 344.8 98.3582 344.99 97.6982 345.37C97.0382 345.75 96.4982 346.31 96.0782 347.05C95.6782 347.77 95.4782 348.63 95.4782 349.63C95.4782 350.63 95.6782 351.51 96.0782 352.27C96.4982 353.01 97.0382 353.58 97.6982 353.98C98.3782 354.38 99.0982 354.58 99.8582 354.58C100.638 354.58 101.368 354.39 102.048 354.01C102.728 353.61 103.268 353.05 103.668 352.33C104.068 351.59 104.268 350.71 104.268 349.69ZM114.73 339.4C113.97 339.4 113.34 339.17 112.84 338.71C112.36 338.23 112.12 337.64 112.12 336.94C112.12 336.24 112.36 335.66 112.84 335.2C113.34 334.72 113.97 334.48 114.73 334.48C115.47 334.48 116.08 334.72 116.56 335.2C117.04 335.66 117.28 336.24 117.28 336.94C117.28 337.64 117.04 338.23 116.56 338.71C116.08 339.17 115.47 339.4 114.73 339.4ZM116.8 360.73C116.8 362.57 116.34 363.89 115.42 364.69C114.52 365.51 113.22 365.92 111.52 365.92H109.66V362.35H110.86C111.5 362.35 111.95 362.22 112.21 361.96C112.47 361.72 112.6 361.32 112.6 360.76V341.38H116.8V360.73ZM119.87 349.63C119.87 347.95 120.2 346.46 120.86 345.16C121.54 343.86 122.45 342.86 123.59 342.16C124.75 341.46 126.04 341.11 127.46 341.11C128.7 341.11 129.78 341.36 130.7 341.86C131.64 342.36 132.39 342.99 132.95 343.75V341.38H137.18V358H132.95V355.57C132.41 356.35 131.66 357 130.7 357.52C129.76 358.02 128.67 358.27 127.43 358.27C126.03 358.27 124.75 357.91 123.59 357.19C122.45 356.47 121.54 355.46 120.86 354.16C120.2 352.84 119.87 351.33 119.87 349.63ZM132.95 349.69C132.95 348.67 132.75 347.8 132.35 347.08C131.95 346.34 131.41 345.78 130.73 345.4C130.05 345 129.32 344.8 128.54 344.8C127.76 344.8 127.04 344.99 126.38 345.37C125.72 345.75 125.18 346.31 124.76 347.05C124.36 347.77 124.16 348.63 124.16 349.63C124.16 350.63 124.36 351.51 124.76 352.27C125.18 353.01 125.72 353.58 126.38 353.98C127.06 354.38 127.78 354.58 128.54 354.58C129.32 354.58 130.05 354.39 130.73 354.01C131.41 353.61 131.95 353.05 132.35 352.33C132.75 351.59 132.95 350.71 132.95 349.69ZM145.482 343.96C146.022 343.08 146.722 342.39 147.582 341.89C148.462 341.39 149.462 341.14 150.582 341.14V345.55H149.472C148.152 345.55 147.152 345.86 146.472 346.48C145.812 347.1 145.482 348.18 145.482 349.72V358H141.282V341.38H145.482V343.96ZM172.439 347.26C173.619 347.48 174.589 348.07 175.349 349.03C176.109 349.99 176.489 351.09 176.489 352.33C176.489 353.45 176.209 354.44 175.649 355.3C175.109 356.14 174.319 356.8 173.279 357.28C172.239 357.76 171.009 358 169.589 358H160.559V337.06H169.199C170.619 337.06 171.839 337.29 172.859 337.75C173.899 338.21 174.679 338.85 175.199 339.67C175.739 340.49 176.009 341.42 176.009 342.46C176.009 343.68 175.679 344.7 175.019 345.52C174.379 346.34 173.519 346.92 172.439 347.26ZM164.759 345.7H168.599C169.599 345.7 170.369 345.48 170.909 345.04C171.449 344.58 171.719 343.93 171.719 343.09C171.719 342.25 171.449 341.6 170.909 341.14C170.369 340.68 169.599 340.45 168.599 340.45H164.759V345.7ZM168.989 354.58C170.009 354.58 170.799 354.34 171.359 353.86C171.939 353.38 172.229 352.7 172.229 351.82C172.229 350.92 171.929 350.22 171.329 349.72C170.729 349.2 169.919 348.94 168.899 348.94H164.759V354.58H168.989ZM178.757 349.63C178.757 347.95 179.087 346.46 179.747 345.16C180.427 343.86 181.337 342.86 182.477 342.16C183.637 341.46 184.927 341.11 186.347 341.11C187.587 341.11 188.667 341.36 189.587 341.86C190.527 342.36 191.277 342.99 191.837 343.75V341.38H196.067V358H191.837V355.57C191.297 356.35 190.547 357 189.587 357.52C188.647 358.02 187.557 358.27 186.317 358.27C184.917 358.27 183.637 357.91 182.477 357.19C181.337 356.47 180.427 355.46 179.747 354.16C179.087 352.84 178.757 351.33 178.757 349.63ZM191.837 349.69C191.837 348.67 191.637 347.8 191.237 347.08C190.837 346.34 190.297 345.78 189.617 345.4C188.937 345 188.207 344.8 187.427 344.8C186.647 344.8 185.927 344.99 185.267 345.37C184.607 345.75 184.067 346.31 183.647 347.05C183.247 347.77 183.047 348.63 183.047 349.63C183.047 350.63 183.247 351.51 183.647 352.27C184.067 353.01 184.607 353.58 185.267 353.98C185.947 354.38 186.667 354.58 187.427 354.58C188.207 354.58 188.937 354.39 189.617 354.01C190.297 353.61 190.837 353.05 191.237 352.33C191.637 351.59 191.837 350.71 191.837 349.69ZM209.529 341.14C210.789 341.14 211.909 341.42 212.889 341.98C213.869 342.52 214.629 343.33 215.169 344.41C215.729 345.47 216.009 346.75 216.009 348.25V358H211.809V348.82C211.809 347.5 211.479 346.49 210.819 345.79C210.159 345.07 209.259 344.71 208.119 344.71C206.959 344.71 206.039 345.07 205.359 345.79C204.699 346.49 204.369 347.5 204.369 348.82V358H200.169V335.8H204.369V343.45C204.909 342.73 205.629 342.17 206.529 341.77C207.429 341.35 208.429 341.14 209.529 341.14ZM218.923 349.63C218.923 347.95 219.253 346.46 219.913 345.16C220.593 343.86 221.503 342.86 222.643 342.16C223.803 341.46 225.093 341.11 226.513 341.11C227.753 341.11 228.833 341.36 229.753 341.86C230.693 342.36 231.443 342.99 232.003 343.75V341.38H236.233V358H232.003V355.57C231.463 356.35 230.713 357 229.753 357.52C228.813 358.02 227.723 358.27 226.483 358.27C225.083 358.27 223.803 357.91 222.643 357.19C221.503 356.47 220.593 355.46 219.913 354.16C219.253 352.84 218.923 351.33 218.923 349.63ZM232.003 349.69C232.003 348.67 231.803 347.8 231.403 347.08C231.003 346.34 230.463 345.78 229.783 345.4C229.103 345 228.373 344.8 227.593 344.8C226.813 344.8 226.093 344.99 225.433 345.37C224.773 345.75 224.233 346.31 223.813 347.05C223.413 347.77 223.213 348.63 223.213 349.63C223.213 350.63 223.413 351.51 223.813 352.27C224.233 353.01 224.773 353.58 225.433 353.98C226.113 354.38 226.833 354.58 227.593 354.58C228.373 354.58 229.103 354.39 229.783 354.01C230.463 353.61 231.003 353.05 231.403 352.33C231.803 351.59 232.003 350.71 232.003 349.69ZM246.695 358.27C245.335 358.27 244.115 358.03 243.035 357.55C241.955 357.05 241.095 356.38 240.455 355.54C239.835 354.7 239.495 353.77 239.435 352.75H243.665C243.745 353.39 244.055 353.92 244.595 354.34C245.155 354.76 245.845 354.97 246.665 354.97C247.465 354.97 248.085 354.81 248.525 354.49C248.985 354.17 249.215 353.76 249.215 353.26C249.215 352.72 248.935 352.32 248.375 352.06C247.835 351.78 246.965 351.48 245.765 351.16C244.525 350.86 243.505 350.55 242.705 350.23C241.925 349.91 241.245 349.42 240.665 348.76C240.105 348.1 239.825 347.21 239.825 346.09C239.825 345.17 240.085 344.33 240.605 343.57C241.145 342.81 241.905 342.21 242.885 341.77C243.885 341.33 245.055 341.11 246.395 341.11C248.375 341.11 249.955 341.61 251.135 342.61C252.315 343.59 252.965 344.92 253.085 346.6H249.065C249.005 345.94 248.725 345.42 248.225 345.04C247.745 344.64 247.095 344.44 246.275 344.44C245.515 344.44 244.925 344.58 244.505 344.86C244.105 345.14 243.905 345.53 243.905 346.03C243.905 346.59 244.185 347.02 244.745 347.32C245.305 347.6 246.175 347.89 247.355 348.19C248.555 348.49 249.545 348.8 250.325 349.12C251.105 349.44 251.775 349.94 252.335 350.62C252.915 351.28 253.215 352.16 253.235 353.26C253.235 354.22 252.965 355.08 252.425 355.84C251.905 356.6 251.145 357.2 250.145 357.64C249.165 358.06 248.015 358.27 246.695 358.27ZM255.602 349.63C255.602 347.95 255.932 346.46 256.592 345.16C257.272 343.86 258.182 342.86 259.322 342.16C260.482 341.46 261.772 341.11 263.192 341.11C264.432 341.11 265.512 341.36 266.432 341.86C267.372 342.36 268.122 342.99 268.682 343.75V341.38H272.912V358H268.682V355.57C268.142 356.35 267.392 357 266.432 357.52C265.492 358.02 264.402 358.27 263.162 358.27C261.762 358.27 260.482 357.91 259.322 357.19C258.182 356.47 257.272 355.46 256.592 354.16C255.932 352.84 255.602 351.33 255.602 349.63ZM268.682 349.69C268.682 348.67 268.482 347.8 268.082 347.08C267.682 346.34 267.142 345.78 266.462 345.4C265.782 345 265.052 344.8 264.272 344.8C263.492 344.8 262.772 344.99 262.112 345.37C261.452 345.75 260.912 346.31 260.492 347.05C260.092 347.77 259.892 348.63 259.892 349.63C259.892 350.63 260.092 351.51 260.492 352.27C260.912 353.01 261.452 353.58 262.112 353.98C262.792 354.38 263.512 354.58 264.272 354.58C265.052 354.58 265.782 354.39 266.462 354.01C267.142 353.61 267.682 353.05 268.082 352.33C268.482 351.59 268.682 350.71 268.682 349.69ZM131.241 399.01H122.901L121.521 403H117.111L124.641 382.03H129.531L137.061 403H132.621L131.241 399.01ZM130.101 395.65L127.071 386.89L124.041 395.65H130.101ZM146.236 403.27C144.876 403.27 143.656 403.03 142.576 402.55C141.496 402.05 140.636 401.38 139.996 400.54C139.376 399.7 139.036 398.77 138.976 397.75H143.206C143.286 398.39 143.596 398.92 144.136 399.34C144.696 399.76 145.386 399.97 146.206 399.97C147.006 399.97 147.626 399.81 148.066 399.49C148.526 399.17 148.756 398.76 148.756 398.26C148.756 397.72 148.476 397.32 147.916 397.06C147.376 396.78 146.506 396.48 145.306 396.16C144.066 395.86 143.046 395.55 142.246 395.23C141.466 394.91 140.786 394.42 140.206 393.76C139.646 393.1 139.366 392.21 139.366 391.09C139.366 390.17 139.626 389.33 140.146 388.57C140.686 387.81 141.446 387.21 142.426 386.77C143.426 386.33 144.596 386.11 145.936 386.11C147.916 386.11 149.496 386.61 150.676 387.61C151.856 388.59 152.506 389.92 152.626 391.6H148.606C148.546 390.94 148.266 390.42 147.766 390.04C147.286 389.64 146.636 389.44 145.816 389.44C145.056 389.44 144.466 389.58 144.046 389.86C143.646 390.14 143.446 390.53 143.446 391.03C143.446 391.59 143.726 392.02 144.286 392.32C144.846 392.6 145.716 392.89 146.896 393.19C148.096 393.49 149.086 393.8 149.866 394.12C150.646 394.44 151.316 394.94 151.876 395.62C152.456 396.28 152.756 397.16 152.776 398.26C152.776 399.22 152.506 400.08 151.966 400.84C151.446 401.6 150.686 402.2 149.686 402.64C148.706 403.06 147.556 403.27 146.236 403.27ZM158.353 384.4C157.613 384.4 156.993 384.17 156.493 383.71C156.013 383.23 155.773 382.64 155.773 381.94C155.773 381.24 156.013 380.66 156.493 380.2C156.993 379.72 157.613 379.48 158.353 379.48C159.093 379.48 159.703 379.72 160.183 380.2C160.683 380.66 160.933 381.24 160.933 381.94C160.933 382.64 160.683 383.23 160.183 383.71C159.703 384.17 159.093 384.4 158.353 384.4ZM160.423 386.38V403H156.223V386.38H160.423ZM173.783 386.14C175.763 386.14 177.363 386.77 178.583 388.03C179.803 389.27 180.413 391.01 180.413 393.25V403H176.213V393.82C176.213 392.5 175.883 391.49 175.223 390.79C174.563 390.07 173.663 389.71 172.523 389.71C171.363 389.71 170.443 390.07 169.763 390.79C169.103 391.49 168.773 392.5 168.773 393.82V403H164.573V386.38H168.773V388.45C169.333 387.73 170.043 387.17 170.903 386.77C171.783 386.35 172.743 386.14 173.783 386.14ZM190.917 386.11C192.157 386.11 193.247 386.36 194.187 386.86C195.127 387.34 195.867 387.97 196.407 388.75V386.38H200.637V403.12C200.637 404.66 200.327 406.03 199.707 407.23C199.087 408.45 198.157 409.41 196.917 410.11C195.677 410.83 194.177 411.19 192.417 411.19C190.057 411.19 188.117 410.64 186.597 409.54C185.097 408.44 184.247 406.94 184.047 405.04H188.217C188.437 405.8 188.907 406.4 189.627 406.84C190.367 407.3 191.257 407.53 192.297 407.53C193.517 407.53 194.507 407.16 195.267 406.42C196.027 405.7 196.407 404.6 196.407 403.12V400.54C195.867 401.32 195.117 401.97 194.157 402.49C193.217 403.01 192.137 403.27 190.917 403.27C189.517 403.27 188.237 402.91 187.077 402.19C185.917 401.47 184.997 400.46 184.317 399.16C183.657 397.84 183.327 396.33 183.327 394.63C183.327 392.95 183.657 391.46 184.317 390.16C184.997 388.86 185.907 387.86 187.047 387.16C188.207 386.46 189.497 386.11 190.917 386.11ZM196.407 394.69C196.407 393.67 196.207 392.8 195.807 392.08C195.407 391.34 194.867 390.78 194.187 390.4C193.507 390 192.777 389.8 191.997 389.8C191.217 389.8 190.497 389.99 189.837 390.37C189.177 390.75 188.637 391.31 188.217 392.05C187.817 392.77 187.617 393.63 187.617 394.63C187.617 395.63 187.817 396.51 188.217 397.27C188.637 398.01 189.177 398.58 189.837 398.98C190.517 399.38 191.237 399.58 191.997 399.58C192.777 399.58 193.507 399.39 194.187 399.01C194.867 398.61 195.407 398.05 195.807 397.33C196.207 396.59 196.407 395.71 196.407 394.69Z" fill="#EAE41E"/>
<path d="M226.67 90.529H154.829L144.074 57.6848C143.55 56.0833 142.055 55 140.369 55H72.3304C62.2231 55 54 63.2231 54 73.3308V192.138C54 202.246 62.2231 210.469 72.3304 210.469H143.998L154.933 243.332C155.462 244.925 156.953 246 158.631 246H226.669C236.777 246 245 237.777 245 227.669V108.861C245 98.7528 236.777 90.529 226.67 90.529ZM72.3304 202.673C66.5217 202.673 61.7959 197.947 61.7959 192.138V73.3308C61.7959 67.5221 66.5217 62.7959 72.3304 62.7959H137.544L183.348 202.674H72.3304V202.673ZM184.737 161.891C186.406 164.443 188.413 167.276 190.783 170.27C188.564 172.771 186.112 175.304 183.412 177.816L172.68 145.043H175.766C177.117 148.38 179.914 154.516 184.737 161.891ZM184.265 145.043H207.455C205.415 149.485 201.745 156.409 195.862 164.105C194.166 161.894 192.689 159.794 191.422 157.869C188.054 152.75 185.738 148.253 184.265 145.043ZM152.215 210.469H180.316L160.14 234.288L152.215 210.469ZM226.67 238.204H167.04L191.635 209.168C192.253 208.479 192.632 207.57 192.632 206.572C192.632 206.058 192.532 205.566 192.352 205.117L186.066 185.92C189.716 182.728 192.976 179.485 195.878 176.281C202.422 183.506 210.98 191.176 221.916 197.872C222.551 198.261 223.254 198.446 223.947 198.446C225.259 198.446 226.541 197.784 227.275 196.583C228.399 194.747 227.822 192.347 225.986 191.223C215.365 184.72 207.15 177.237 200.961 170.276C209.616 159.33 214.124 149.598 215.959 145.043H227.459C229.611 145.043 231.357 143.298 231.357 141.145C231.357 138.992 229.611 137.247 227.459 137.247H199.515V130.62C199.515 128.467 197.77 126.722 195.617 126.722C193.465 126.722 191.719 128.467 191.719 130.62V137.247H170.127L157.381 98.3249H226.669C232.478 98.3249 237.203 103.051 237.203 108.86V227.669H237.204C237.204 233.478 232.478 238.204 226.67 238.204Z" fill="black"/>
<path d="M133.532 117.817H111.447C109.294 117.817 107.549 119.562 107.549 121.715C107.549 123.868 109.294 125.613 111.447 125.613H129.27C127.438 135.292 118.918 142.635 108.715 142.635C97.1799 142.635 87.7956 133.25 87.7956 121.715C87.7956 110.18 97.1799 100.796 108.715 100.796C113.682 100.796 118.497 102.567 122.273 105.783C123.911 107.179 126.372 106.982 127.768 105.343C129.163 103.704 128.967 101.244 127.328 99.8484C122.143 95.4319 115.533 93 108.715 93C92.8813 93 80 105.882 80 121.715C79.9996 137.548 92.8809 150.429 108.715 150.429C124.548 150.429 137.429 137.548 137.429 121.714C137.43 119.563 135.685 117.817 133.532 117.817Z" fill="black"/>
<path d="M127.759 155H89.898C87.7455 155 86 156.745 86 158.898C86 161.051 87.7455 162.796 89.898 162.796H127.759C129.912 162.796 131.657 161.051 131.657 158.898C131.657 156.745 129.912 155 127.759 155Z" fill="black"/>
<path d="M142.643 155H140.898C138.745 155 137 156.745 137 158.898C137 161.051 138.745 162.796 140.898 162.796H142.643C144.796 162.796 146.541 161.051 146.541 158.898C146.541 156.745 144.796 155 142.643 155Z" fill="black"/>
</svg>
