<svg width="300" height="415" viewBox="0 0 300 415" fill="none" xmlns="http://www.w3.org/2000/svg">
<circle cx="150" cy="150" r="150" fill="#EAE41E"/>
<path d="M237.555 98.8296C230.661 90.6339 217.932 87.2908 193.622 87.2908H105.377C80.5102 87.2908 67.5653 90.8495 60.6967 99.5752C54 108.083 54 120.618 54 137.967V171.034C54 204.644 61.9456 221.709 105.377 221.709H193.622C214.704 221.709 226.385 218.759 233.943 211.526C241.693 204.109 245 191.999 245 171.034V137.967C245 119.671 244.482 107.062 237.555 98.8296ZM176.623 159.065L136.551 180.008C135.655 180.477 134.675 180.709 133.697 180.709C132.589 180.709 131.484 180.411 130.505 179.818C128.661 178.701 127.536 176.703 127.536 174.548V132.796C127.536 130.645 128.658 128.648 130.498 127.531C132.338 126.413 134.627 126.337 136.537 127.329L176.608 148.137C178.647 149.195 179.928 151.3 179.931 153.596C179.933 155.894 178.658 158.002 176.623 159.065Z" fill="black"/>
<path d="M96.9537 337.06V358H92.7537V344.38L87.1437 358H83.9637L78.3237 344.38V358H74.1237V337.06H78.8937L85.5537 352.63L92.2137 337.06H96.9537ZM116.556 349.33C116.556 349.93 116.516 350.47 116.436 350.95H104.286C104.386 352.15 104.806 353.09 105.546 353.77C106.286 354.45 107.196 354.79 108.276 354.79C109.836 354.79 110.946 354.12 111.606 352.78H116.136C115.656 354.38 114.736 355.7 113.376 356.74C112.016 357.76 110.346 358.27 108.366 358.27C106.766 358.27 105.326 357.92 104.046 357.22C102.786 356.5 101.796 355.49 101.076 354.19C100.376 352.89 100.026 351.39 100.026 349.69C100.026 347.97 100.376 346.46 101.076 345.16C101.776 343.86 102.756 342.86 104.016 342.16C105.276 341.46 106.726 341.11 108.366 341.11C109.946 341.11 111.356 341.45 112.596 342.13C113.856 342.81 114.826 343.78 115.506 345.04C116.206 346.28 116.556 347.71 116.556 349.33ZM112.206 348.13C112.186 347.05 111.796 346.19 111.036 345.55C110.276 344.89 109.346 344.56 108.246 344.56C107.206 344.56 106.326 344.88 105.606 345.52C104.906 346.14 104.476 347.01 104.316 348.13H112.206ZM128.832 341.14C130.812 341.14 132.412 341.77 133.632 343.03C134.852 344.27 135.462 346.01 135.462 348.25V358H131.262V348.82C131.262 347.5 130.932 346.49 130.272 345.79C129.612 345.07 128.712 344.71 127.572 344.71C126.412 344.71 125.492 345.07 124.812 345.79C124.152 346.49 123.822 347.5 123.822 348.82V358H119.622V341.38H123.822V343.45C124.382 342.73 125.092 342.17 125.952 341.77C126.832 341.35 127.792 341.14 128.832 341.14ZM146.836 358.27C145.236 358.27 143.796 357.92 142.516 357.22C141.236 356.5 140.226 355.49 139.486 354.19C138.766 352.89 138.406 351.39 138.406 349.69C138.406 347.99 138.776 346.49 139.516 345.19C140.276 343.89 141.306 342.89 142.606 342.19C143.906 341.47 145.356 341.11 146.956 341.11C148.556 341.11 150.006 341.47 151.306 342.19C152.606 342.89 153.626 343.89 154.366 345.19C155.126 346.49 155.506 347.99 155.506 349.69C155.506 351.39 155.116 352.89 154.336 354.19C153.576 355.49 152.536 356.5 151.216 357.22C149.916 357.92 148.456 358.27 146.836 358.27ZM146.836 354.61C147.596 354.61 148.306 354.43 148.966 354.07C149.646 353.69 150.186 353.13 150.586 352.39C150.986 351.65 151.186 350.75 151.186 349.69C151.186 348.11 150.766 346.9 149.926 346.06C149.106 345.2 148.096 344.77 146.896 344.77C145.696 344.77 144.686 345.2 143.866 346.06C143.066 346.9 142.666 348.11 142.666 349.69C142.666 351.27 143.056 352.49 143.836 353.35C144.636 354.19 145.636 354.61 146.836 354.61ZM167.797 341.14C169.777 341.14 171.377 341.77 172.597 343.03C173.817 344.27 174.427 346.01 174.427 348.25V358H170.227V348.82C170.227 347.5 169.897 346.49 169.237 345.79C168.577 345.07 167.677 344.71 166.537 344.71C165.377 344.71 164.457 345.07 163.777 345.79C163.117 346.49 162.787 347.5 162.787 348.82V358H158.587V341.38H162.787V343.45C163.347 342.73 164.057 342.17 164.917 341.77C165.797 341.35 166.757 341.14 167.797 341.14ZM183.311 344.83V352.87C183.311 353.43 183.441 353.84 183.701 354.1C183.981 354.34 184.441 354.46 185.081 354.46H187.031V358H184.391C180.851 358 179.081 356.28 179.081 352.84V344.83H177.101V341.38H179.081V337.27H183.311V341.38H187.031V344.83H183.311ZM197.431 358.27C195.831 358.27 194.391 357.92 193.111 357.22C191.831 356.5 190.821 355.49 190.081 354.19C189.361 352.89 189.001 351.39 189.001 349.69C189.001 347.99 189.371 346.49 190.111 345.19C190.871 343.89 191.901 342.89 193.201 342.19C194.501 341.47 195.951 341.11 197.551 341.11C199.151 341.11 200.601 341.47 201.901 342.19C203.201 342.89 204.221 343.89 204.961 345.19C205.721 346.49 206.101 347.99 206.101 349.69C206.101 351.39 205.711 352.89 204.931 354.19C204.171 355.49 203.131 356.5 201.811 357.22C200.511 357.92 199.051 358.27 197.431 358.27ZM197.431 354.61C198.191 354.61 198.901 354.43 199.561 354.07C200.241 353.69 200.781 353.13 201.181 352.39C201.581 351.65 201.781 350.75 201.781 349.69C201.781 348.11 201.361 346.9 200.521 346.06C199.701 345.2 198.691 344.77 197.491 344.77C196.291 344.77 195.281 345.2 194.461 346.06C193.661 346.9 193.261 348.11 193.261 349.69C193.261 351.27 193.651 352.49 194.431 353.35C195.231 354.19 196.231 354.61 197.431 354.61ZM218.392 341.14C220.372 341.14 221.972 341.77 223.192 343.03C224.412 344.27 225.022 346.01 225.022 348.25V358H220.822V348.82C220.822 347.5 220.492 346.49 219.832 345.79C219.172 345.07 218.272 344.71 217.132 344.71C215.972 344.71 215.052 345.07 214.372 345.79C213.712 346.49 213.382 347.5 213.382 348.82V358H209.182V341.38H213.382V343.45C213.942 342.73 214.652 342.17 215.512 341.77C216.392 341.35 217.352 341.14 218.392 341.14ZM104.045 382.06L96.9652 395.71V403H92.7652V395.71L85.6552 382.06H90.3952L94.8952 391.63L99.3652 382.06H104.045ZM113.847 403.27C112.247 403.27 110.807 402.92 109.527 402.22C108.247 401.5 107.237 400.49 106.497 399.19C105.777 397.89 105.417 396.39 105.417 394.69C105.417 392.99 105.787 391.49 106.527 390.19C107.287 388.89 108.317 387.89 109.617 387.19C110.917 386.47 112.367 386.11 113.967 386.11C115.567 386.11 117.017 386.47 118.317 387.19C119.617 387.89 120.637 388.89 121.377 390.19C122.137 391.49 122.517 392.99 122.517 394.69C122.517 396.39 122.127 397.89 121.347 399.19C120.587 400.49 119.547 401.5 118.227 402.22C116.927 402.92 115.467 403.27 113.847 403.27ZM113.847 399.61C114.607 399.61 115.317 399.43 115.977 399.07C116.657 398.69 117.197 398.13 117.597 397.39C117.997 396.65 118.197 395.75 118.197 394.69C118.197 393.11 117.777 391.9 116.937 391.06C116.117 390.2 115.107 389.77 113.907 389.77C112.707 389.77 111.697 390.2 110.877 391.06C110.077 391.9 109.677 393.11 109.677 394.69C109.677 396.27 110.067 397.49 110.847 398.35C111.647 399.19 112.647 399.61 113.847 399.61ZM141.288 386.38V403H137.058V400.9C136.518 401.62 135.808 402.19 134.928 402.61C134.068 403.01 133.128 403.21 132.108 403.21C130.808 403.21 129.658 402.94 128.658 402.4C127.658 401.84 126.868 401.03 126.288 399.97C125.728 398.89 125.448 397.61 125.448 396.13V386.38H129.648V395.53C129.648 396.85 129.978 397.87 130.638 398.59C131.298 399.29 132.198 399.64 133.338 399.64C134.498 399.64 135.408 399.29 136.068 398.59C136.728 397.87 137.058 396.85 137.058 395.53V386.38H141.288ZM150.322 389.83V397.87C150.322 398.43 150.452 398.84 150.712 399.1C150.992 399.34 151.452 399.46 152.092 399.46H154.042V403H151.402C147.862 403 146.092 401.28 146.092 397.84V389.83H144.112V386.38H146.092V382.27H150.322V386.38H154.042V389.83H150.322ZM172.753 386.38V403H168.523V400.9C167.983 401.62 167.273 402.19 166.393 402.61C165.533 403.01 164.593 403.21 163.573 403.21C162.273 403.21 161.123 402.94 160.123 402.4C159.123 401.84 158.333 401.03 157.753 399.97C157.193 398.89 156.913 397.61 156.913 396.13V386.38H161.113V395.53C161.113 396.85 161.443 397.87 162.103 398.59C162.763 399.29 163.663 399.64 164.803 399.64C165.963 399.64 166.873 399.29 167.533 398.59C168.193 397.87 168.523 396.85 168.523 395.53V386.38H172.753ZM181.097 388.81C181.637 388.01 182.377 387.36 183.317 386.86C184.277 386.36 185.367 386.11 186.587 386.11C188.007 386.11 189.287 386.46 190.427 387.16C191.587 387.86 192.497 388.86 193.157 390.16C193.837 391.44 194.177 392.93 194.177 394.63C194.177 396.33 193.837 397.84 193.157 399.16C192.497 400.46 191.587 401.47 190.427 402.19C189.287 402.91 188.007 403.27 186.587 403.27C185.347 403.27 184.257 403.03 183.317 402.55C182.397 402.05 181.657 401.41 181.097 400.63V403H176.897V380.8H181.097V388.81ZM189.887 394.63C189.887 393.63 189.677 392.77 189.257 392.05C188.857 391.31 188.317 390.75 187.637 390.37C186.977 389.99 186.257 389.8 185.477 389.8C184.717 389.8 183.997 390 183.317 390.4C182.657 390.78 182.117 391.34 181.697 392.08C181.297 392.82 181.097 393.69 181.097 394.69C181.097 395.69 181.297 396.56 181.697 397.3C182.117 398.04 182.657 398.61 183.317 399.01C183.997 399.39 184.717 399.58 185.477 399.58C186.257 399.58 186.977 399.38 187.637 398.98C188.317 398.58 188.857 398.01 189.257 397.27C189.677 396.53 189.887 395.65 189.887 394.63ZM212.679 394.33C212.679 394.93 212.639 395.47 212.559 395.95H200.409C200.509 397.15 200.929 398.09 201.669 398.77C202.409 399.45 203.319 399.79 204.399 399.79C205.959 399.79 207.069 399.12 207.729 397.78H212.259C211.779 399.38 210.859 400.7 209.499 401.74C208.139 402.76 206.469 403.27 204.489 403.27C202.889 403.27 201.449 402.92 200.169 402.22C198.909 401.5 197.919 400.49 197.199 399.19C196.499 397.89 196.149 396.39 196.149 394.69C196.149 392.97 196.499 391.46 197.199 390.16C197.899 388.86 198.879 387.86 200.139 387.16C201.399 386.46 202.849 386.11 204.489 386.11C206.069 386.11 207.479 386.45 208.719 387.13C209.979 387.81 210.949 388.78 211.629 390.04C212.329 391.28 212.679 392.71 212.679 394.33ZM208.329 393.13C208.309 392.05 207.919 391.19 207.159 390.55C206.399 389.89 205.469 389.56 204.369 389.56C203.329 389.56 202.449 389.88 201.729 390.52C201.029 391.14 200.599 392.01 200.439 393.13H208.329Z" fill="#EAE41E"/>
</svg>
